# Blender v2.79 (sub 6) OBJ File: ''
# www.blender.org
mtllib phys_mesh.mtl
o Mesh3_Group1_Model
v 11.000000 -0.200002 12.124400
v 10.000000 -0.200002 12.124400
v 9.500000 -0.200002 12.990400
v 8.500000 -0.200002 12.990400
v 8.000000 -0.200002 12.124400
v 8.500000 -0.200002 11.258300
v 9.500000 -0.200002 11.258300
v 10.000000 -0.200002 10.392300
v 11.000000 -0.200002 10.392300
v 11.500000 -0.200002 11.258300
v 11.000000 -0.000002 12.124400
v 10.000000 -0.000002 12.124400
v 11.500000 -0.000002 11.258300
v 11.000000 -0.000002 10.392300
v 10.000000 -0.000002 10.392300
v 9.500000 -0.000002 11.258300
v 8.500000 -0.000002 11.258300
v 8.000000 -0.000002 12.124400
v 8.500000 -0.000002 12.990400
v 9.500000 -0.000002 12.990400
vt -944.882019 34.095501
vt -905.512024 34.095501
vt -885.827026 0.000000
vt -846.456970 0.000000
vt -826.771973 34.095501
vt -846.456970 68.191002
vt -885.827026 68.191002
vt -905.512024 102.286003
vt -944.882019 102.286003
vt -964.567017 68.191002
vt 905.512024 -3.937010
vt 944.882019 -3.937010
vt 944.882019 3.937010
vt 905.512024 3.937010
vt 501.968994 -3.937010
vt 541.338989 -3.937010
vt 541.338989 3.937010
vt 501.968994 3.937010
vt -423.227997 -3.937010
vt -383.858002 -3.937010
vt -383.858002 3.937010
vt -423.227997 3.937010
vt -944.882019 -3.937010
vt -905.512024 -3.937010
vt -905.512024 3.937010
vt -944.882019 3.937010
vt -541.338989 -3.937010
vt -501.968994 -3.937010
vt -501.968994 3.937010
vt -541.338989 3.937010
vt -885.827026 -3.937010
vt -846.456970 -3.937010
vt -846.456970 3.937010
vt -885.827026 3.937010
vt -482.282990 -3.937010
vt -442.912994 -3.937010
vt -442.912994 3.937010
vt -482.282990 3.937010
vt 383.858002 -3.937010
vt 423.227997 -3.937010
vt 423.227997 3.937010
vt 383.858002 3.937010
vt 846.456970 -3.937010
vt 885.827026 -3.937010
vt 885.827026 3.937010
vt 846.456970 3.937010
vt 442.912994 -3.937010
vt 482.282990 -3.937010
vt 482.282990 3.937010
vt 442.912994 3.937010
vt 905.512024 34.095501
vt 944.882019 34.095501
vt 964.567017 68.191002
vt 944.882019 102.286003
vt 905.512024 102.286003
vt 885.827026 68.191002
vt 846.456970 68.191002
vt 826.771973 34.095501
vt 846.456970 0.000000
vt 885.827026 0.000000
vn 0.0000 -1.0000 -0.0000
vn 0.0000 0.0000 1.0000
vn 0.8660 0.0000 0.5000
vn 0.8660 0.0000 -0.5000
vn 0.0000 0.0000 -1.0000
vn -0.8660 0.0000 -0.5000
vn -0.8660 0.0000 0.5000
vn 0.0000 1.0000 0.0000
usemtl FrontColor
s 1
f 1/1/1 2/2/1 3/3/1 4/4/1 5/5/1 6/6/1 7/7/1 8/8/1 9/9/1 10/10/1
f 2/11/2 1/12/2 11/13/2 12/14/2
f 1/15/3 10/16/3 13/17/3 11/18/3
f 10/19/4 9/20/4 14/21/4 13/22/4
f 9/23/5 8/24/5 15/25/5 14/26/5
f 8/27/6 7/28/6 16/29/6 15/30/6
f 7/31/5 6/32/5 17/33/5 16/34/5
f 6/35/6 5/36/6 18/37/6 17/38/6
f 5/39/7 4/40/7 19/41/7 18/42/7
f 4/43/2 3/44/2 20/45/2 19/46/2
f 3/47/3 2/48/3 12/49/3 20/50/3
f 12/51/8 11/52/8 13/53/8 14/54/8 15/55/8 16/56/8 17/57/8 18/58/8 19/59/8 20/60/8
o Mesh2_Group1_Model
v -1.000000 -0.200002 12.124400
v -2.000000 -0.200002 12.124400
v -2.500000 -0.200002 12.990400
v -3.500000 -0.200002 12.990400
v -4.000000 -0.200002 12.124400
v -5.000000 -0.200002 12.124400
v -5.500000 -0.200002 11.258300
v -6.500000 -0.200002 11.258300
v -7.000000 -0.200002 12.124400
v -8.000000 -0.200002 12.124400
v -8.500000 -0.200002 11.258300
v -9.500000 -0.200002 11.258300
v -10.000000 -0.200002 10.392300
v -11.000000 -0.200002 10.392300
v -11.500000 -0.200002 9.526280
v -12.500000 -0.200002 9.526280
v -13.000000 -0.200001 8.660250
v -12.500000 -0.200001 7.794230
v -11.500000 -0.200001 7.794230
v -11.000000 -0.200001 8.660250
v -10.000000 -0.200001 8.660250
v -9.500000 -0.200001 7.794230
v -10.000000 -0.200001 6.928200
v -11.000000 -0.200001 6.928200
v -11.500000 -0.200001 6.062180
v -11.000000 -0.200001 5.196150
v -11.500000 -0.200001 4.330130
v -11.000000 -0.200001 3.464100
v -11.500000 -0.200000 2.598080
v -11.000000 -0.200000 1.732050
v -11.500000 -0.200000 0.866025
v -11.000000 -0.200000 -0.000000
v -11.500000 -0.200000 -0.866025
v -12.500000 -0.200000 -0.866025
v -13.000000 -0.200000 -1.732050
v -12.500000 -0.200000 -2.598080
v -13.000000 -0.199999 -3.464100
v -12.500000 -0.199999 -4.330130
v -11.500000 -0.199999 -4.330130
v -11.000000 -0.199999 -5.196150
v -10.000000 -0.199999 -5.196150
v -9.500000 -0.199999 -6.062180
v -8.500000 -0.199999 -6.062180
v -8.000000 -0.199999 -6.928200
v -8.500000 -0.199999 -7.794230
v -9.500000 -0.199999 -7.794230
v -10.000000 -0.199999 -6.928200
v -11.000000 -0.199999 -6.928200
v -11.500000 -0.199999 -7.794230
v -11.000000 -0.199999 -8.660250
v -10.000000 -0.199999 -8.660250
v -9.500000 -0.199998 -9.526280
v -10.000000 -0.199998 -10.392300
v -9.500000 -0.199998 -11.258300
v -8.500000 -0.199998 -11.258300
v -8.000000 -0.199998 -10.392300
v -8.500000 -0.199998 -9.526280
v -8.000000 -0.199999 -8.660250
v -7.000000 -0.199999 -8.660250
v -6.500000 -0.199998 -9.526280
v -5.500000 -0.199998 -9.526280
v -5.000000 -0.199999 -8.660250
v -4.000000 -0.199999 -8.660250
v -3.500000 -0.199998 -9.526280
v -2.500000 -0.199998 -9.526280
v -2.000000 -0.199998 -10.392300
v -1.000000 -0.199998 -10.392300
v -0.500000 -0.199998 -11.258300
v 0.500000 -0.199998 -11.258300
v 1.000000 -0.199998 -10.392300
v 2.000000 -0.199998 -10.392300
v 2.500000 -0.199998 -11.258300
v 3.500000 -0.199998 -11.258300
v 4.000000 -0.199998 -10.392300
v 5.000000 -0.199998 -10.392300
v 5.500000 -0.199998 -11.258300
v 6.500000 -0.199998 -11.258300
v 7.000000 -0.199998 -10.392300
v 8.000000 -0.199998 -10.392300
v 8.500000 -0.199998 -11.258300
v 9.500000 -0.199998 -11.258300
v 10.000000 -0.199998 -10.392300
v 11.000000 -0.199998 -10.392300
v 11.500000 -0.199998 -9.526280
v 11.000000 -0.199999 -8.660250
v 11.500000 -0.199999 -7.794230
v 11.000000 -0.199999 -6.928200
v 11.500000 -0.199999 -6.062180
v 11.000000 -0.199999 -5.196150
v 10.000000 -0.199999 -5.196150
v 9.500000 -0.199999 -6.062180
v 10.000000 -0.199999 -6.928200
v 9.500000 -0.199999 -7.794230
v 8.500000 -0.199999 -7.794230
v 8.000000 -0.199999 -8.660250
v 7.000000 -0.199999 -8.660250
v 6.500000 -0.199998 -9.526280
v 5.500000 -0.199998 -9.526280
v 5.000000 -0.199999 -8.660250
v 5.500000 -0.199999 -7.794230
v 6.500000 -0.199999 -7.794230
v 7.000000 -0.199999 -6.928200
v 8.000000 -0.199999 -6.928200
v 8.500000 -0.199999 -6.062180
v 8.000000 -0.199999 -5.196150
v 8.500000 -0.199999 -4.330130
v 9.500000 -0.199999 -4.330130
v 10.000000 -0.199999 -3.464100
v 9.500000 -0.200000 -2.598080
v 10.000000 -0.200000 -1.732050
v 11.000000 -0.200000 -1.732050
v 11.500000 -0.200000 -0.866025
v 11.000000 -0.200000 -0.000000
v 11.500000 -0.200000 0.866025
v 11.000000 -0.200000 1.732050
v 10.000000 -0.200000 1.732050
v 9.500000 -0.200000 2.598080
v 10.000000 -0.200001 3.464100
v 9.500000 -0.200001 4.330130
v 10.000000 -0.200001 5.196150
v 9.500000 -0.200001 6.062180
v 10.000000 -0.200001 6.928200
v 9.500000 -0.200001 7.794230
v 8.500000 -0.200001 7.794230
v 8.000000 -0.200001 8.660250
v 8.500000 -0.200002 9.526280
v 8.000000 -0.200002 10.392300
v 7.000000 -0.200002 10.392300
v 6.500000 -0.200002 11.258300
v 5.500000 -0.200002 11.258300
v 5.000000 -0.200002 12.124400
v 4.000000 -0.200002 12.124400
v 3.500000 -0.200002 11.258300
v 2.500000 -0.200002 11.258300
v 2.000000 -0.200002 10.392300
v 2.500000 -0.200002 9.526280
v 2.000000 -0.200001 8.660250
v 1.000000 -0.200001 8.660250
v 0.500000 -0.200002 9.526280
v -0.500000 -0.200002 9.526280
v -1.000000 -0.200002 10.392300
v -0.500000 -0.200002 11.258300
v 0.500000 -0.200002 11.258300
v 1.000000 -0.200002 12.124400
v 0.500000 -0.200002 12.990400
v -0.500000 -0.200002 12.990400
v -1.000000 -0.000002 12.124400
v -2.000000 -0.000002 12.124400
v -0.500000 -0.000002 12.990400
v 0.500000 -0.000002 12.990400
v 1.000000 -0.000002 12.124400
v 0.500000 -0.000002 11.258300
v -0.500000 -0.000002 11.258300
v -1.000000 -0.000002 10.392300
v -0.500000 -0.000002 9.526280
v 0.500000 -0.000002 9.526280
v 1.000000 -0.000001 8.660250
v 2.000000 -0.000001 8.660250
v 2.500000 -0.000002 9.526280
v 2.000000 -0.000002 10.392300
v 2.500000 -0.000002 11.258300
v 3.500000 -0.000002 11.258300
v 4.000000 -0.000002 12.124400
v 5.000000 -0.000002 12.124400
v 5.500000 -0.000002 11.258300
v 6.500000 -0.000002 11.258300
v 7.000000 -0.000002 10.392300
v 8.000000 -0.000002 10.392300
v 8.500000 -0.000002 9.526280
v 8.000000 -0.000001 8.660250
v 8.500000 -0.000001 7.794230
v 9.500000 -0.000001 7.794230
v 10.000000 -0.000001 6.928200
v 9.500000 -0.000001 6.062180
v 10.000000 -0.000001 5.196150
v 9.500000 -0.000001 4.330130
v 10.000000 -0.000001 3.464100
v 9.500000 -0.000000 2.598080
v 10.000000 -0.000000 1.732050
v 11.000000 -0.000000 1.732050
v 11.500000 -0.000000 0.866025
v 11.000000 -0.000000 -0.000000
v 11.500000 0.000000 -0.866025
v 11.000000 0.000000 -1.732050
v 10.000000 0.000000 -1.732050
v 9.500000 0.000000 -2.598080
v 10.000000 0.000001 -3.464100
v 9.500000 0.000001 -4.330130
v 8.500000 0.000001 -4.330130
v 8.000000 0.000001 -5.196150
v 8.500000 0.000001 -6.062180
v 8.000000 0.000001 -6.928200
v 7.000000 0.000001 -6.928200
v 6.500000 0.000001 -7.794230
v 5.500000 0.000001 -7.794230
v 5.000000 0.000001 -8.660250
v 5.500000 0.000002 -9.526280
v 6.500000 0.000002 -9.526280
v 7.000000 0.000001 -8.660250
v 8.000000 0.000001 -8.660250
v 8.500000 0.000001 -7.794230
v 9.500000 0.000001 -7.794230
v 10.000000 0.000001 -6.928200
v 9.500000 0.000001 -6.062180
v 10.000000 0.000001 -5.196150
v 11.000000 0.000001 -5.196150
v 11.500000 0.000001 -6.062180
v 11.000000 0.000001 -6.928200
v 11.500000 0.000001 -7.794230
v 11.000000 0.000001 -8.660250
v 11.500000 0.000002 -9.526280
v 11.000000 0.000002 -10.392300
v 10.000000 0.000002 -10.392300
v 9.500000 0.000002 -11.258300
v 8.500000 0.000002 -11.258300
v 8.000000 0.000002 -10.392300
v 7.000000 0.000002 -10.392300
v 6.500000 0.000002 -11.258300
v 5.500000 0.000002 -11.258300
v 5.000000 0.000002 -10.392300
v 4.000000 0.000002 -10.392300
v 3.500000 0.000002 -11.258300
v 2.500000 0.000002 -11.258300
v 2.000000 0.000002 -10.392300
v 1.000000 0.000002 -10.392300
v 0.500000 0.000002 -11.258300
v -0.500000 0.000002 -11.258300
v -1.000000 0.000002 -10.392300
v -2.000000 0.000002 -10.392300
v -2.500000 0.000002 -9.526280
v -3.500000 0.000002 -9.526280
v -4.000000 0.000001 -8.660250
v -5.000000 0.000001 -8.660250
v -5.500000 0.000002 -9.526280
v -6.500000 0.000002 -9.526280
v -7.000000 0.000001 -8.660250
v -8.000000 0.000001 -8.660250
v -8.500000 0.000002 -9.526280
v -8.000000 0.000002 -10.392300
v -8.500000 0.000002 -11.258300
v -9.500000 0.000002 -11.258300
v -10.000000 0.000002 -10.392300
v -9.500000 0.000002 -9.526280
v -10.000000 0.000001 -8.660250
v -11.000000 0.000001 -8.660250
v -11.500000 0.000001 -7.794230
v -11.000000 0.000001 -6.928200
v -10.000000 0.000001 -6.928200
v -9.500000 0.000001 -7.794230
v -8.500000 0.000001 -7.794230
v -8.000000 0.000001 -6.928200
v -8.500000 0.000001 -6.062180
v -9.500000 0.000001 -6.062180
v -10.000000 0.000001 -5.196150
v -11.000000 0.000001 -5.196150
v -11.500000 0.000001 -4.330130
v -12.500000 0.000001 -4.330130
v -13.000000 0.000001 -3.464100
v -12.500000 0.000000 -2.598080
v -13.000000 0.000000 -1.732050
v -12.500000 0.000000 -0.866025
v -11.500000 0.000000 -0.866025
v -11.000000 -0.000000 -0.000000
v -11.500000 -0.000000 0.866025
v -11.000000 -0.000000 1.732050
v -11.500000 -0.000000 2.598080
v -11.000000 -0.000001 3.464100
v -11.500000 -0.000001 4.330130
v -11.000000 -0.000001 5.196150
v -11.500000 -0.000001 6.062180
v -11.000000 -0.000001 6.928200
v -10.000000 -0.000001 6.928200
v -9.500000 -0.000001 7.794230
v -10.000000 -0.000001 8.660250
v -11.000000 -0.000001 8.660250
v -11.500000 -0.000001 7.794230
v -12.500000 -0.000001 7.794230
v -13.000000 -0.000001 8.660250
v -12.500000 -0.000002 9.526280
v -11.500000 -0.000002 9.526280
v -11.000000 -0.000002 10.392300
v -10.000000 -0.000002 10.392300
v -9.500000 -0.000002 11.258300
v -8.500000 -0.000002 11.258300
v -8.000000 -0.000002 12.124400
v -7.000000 -0.000002 12.124400
v -6.500000 -0.000002 11.258300
v -5.500000 -0.000002 11.258300
v -5.000000 -0.000002 12.124400
v -4.000000 -0.000002 12.124400
v -3.500000 -0.000002 12.990400
v -2.500000 -0.000002 12.990400
vt -472.441010 34.095501
vt -433.071014 34.095501
vt -413.385986 0.000000
vt -374.015991 0.000000
vt -354.330994 34.095501
vt -314.960999 34.095501
vt -295.276001 68.191002
vt -255.906006 68.191002
vt -236.220001 34.095501
vt -196.850006 34.095501
vt -177.164993 68.191002
vt -137.794998 68.191002
vt -118.110001 102.286003
vt -78.740196 102.286003
vt -59.055099 136.382004
vt -19.684999 136.382004
vt 0.000000 170.477005
vt -19.684999 204.572998
vt -59.055099 204.572998
vt -78.740196 170.477005
vt -118.110001 170.477005
vt -137.794998 204.572998
vt -118.110001 238.667999
vt -78.740196 238.667999
vt -59.055099 272.764008
vt -78.740196 306.859009
vt -59.055099 340.954987
vt -78.740196 375.049988
vt -59.055099 409.145996
vt -78.740196 443.240997
vt -59.055099 477.337006
vt -78.740196 511.432007
vt -59.055099 545.528015
vt -19.684999 545.528015
vt -0.000000 579.622986
vt -19.684999 613.718994
vt -0.000000 647.814026
vt -19.684999 681.909973
vt -59.055099 681.909973
vt -78.740196 716.005005
vt -118.110001 716.005005
vt -137.794998 750.101013
vt -177.164993 750.101013
vt -196.850006 784.195984
vt -177.164993 818.291992
vt -137.794998 818.291992
vt -118.110001 784.195984
vt -78.740196 784.195984
vt -59.055099 818.291992
vt -78.740196 852.387024
vt -118.110001 852.387024
vt -137.794998 886.482971
vt -118.110001 920.578003
vt -137.794998 954.674011
vt -177.164993 954.674011
vt -196.850006 920.578003
vt -177.164993 886.482971
vt -196.850006 852.387024
vt -236.220001 852.387024
vt -255.906006 886.482971
vt -295.276001 886.482971
vt -314.960999 852.387024
vt -354.330994 852.387024
vt -374.015991 886.482971
vt -413.385986 886.482971
vt -433.071014 920.578003
vt -472.441010 920.578003
vt -492.126007 954.674011
vt -531.495972 954.674011
vt -551.181030 920.578003
vt -590.551025 920.578003
vt -610.236023 954.674011
vt -649.606018 954.674011
vt -669.291016 920.578003
vt -708.661011 920.578003
vt -728.346008 954.674011
vt -767.716980 954.674011
vt -787.401978 920.578003
vt -826.771973 920.578003
vt -846.456970 954.674011
vt -885.827026 954.674011
vt -905.512024 920.578003
vt -944.882019 920.578003
vt -964.567017 886.482971
vt -944.882019 852.387024
vt -964.567017 818.291992
vt -944.882019 784.195984
vt -964.567017 750.101013
vt -944.882019 716.005005
vt -905.512024 716.005005
vt -885.827026 750.101013
vt -905.512024 784.195984
vt -885.827026 818.291992
vt -846.456970 818.291992
vt -826.771973 852.387024
vt -787.401978 852.387024
vt -767.716980 886.482971
vt -728.346008 886.482971
vt -708.661011 852.387024
vt -728.346008 818.291992
vt -767.716980 818.291992
vt -787.401978 784.195984
vt -826.771973 784.195984
vt -846.456970 750.101013
vt -826.771973 716.005005
vt -846.456970 681.909973
vt -885.827026 681.909973
vt -905.512024 647.814026
vt -885.827026 613.718994
vt -905.512024 579.622986
vt -944.882019 579.622986
vt -964.567017 545.528015
vt -944.882019 511.432007
vt -964.567017 477.337006
vt -944.882019 443.240997
vt -905.512024 443.240997
vt -885.827026 409.145996
vt -905.512024 375.049988
vt -885.827026 340.954987
vt -905.512024 306.859009
vt -885.827026 272.764008
vt -905.512024 238.667999
vt -885.827026 204.572998
vt -846.456970 204.572998
vt -826.771973 170.477005
vt -846.456970 136.382004
vt -826.771973 102.286003
vt -787.401978 102.286003
vt -767.716980 68.191002
vt -728.346008 68.191002
vt -708.661011 34.095501
vt -669.291016 34.095501
vt -649.606018 68.191002
vt -610.236023 68.191002
vt -590.551025 102.286003
vt -610.236023 136.382004
vt -590.551025 170.477005
vt -551.181030 170.477005
vt -531.495972 136.382004
vt -492.126007 136.382004
vt -472.441010 102.286003
vt -492.126007 68.191002
vt -531.495972 68.191002
vt -551.181030 34.095501
vt -531.495972 0.000000
vt -492.126007 0.000000
vt 433.071014 -3.937010
vt 472.441010 -3.937010
vt 472.441010 3.937010
vt 433.071014 3.937010
vt 206.692993 -3.937010
vt 246.063004 -3.937010
vt 246.063004 3.937010
vt 206.692993 3.937010
vt 492.126007 -3.937010
vt 531.495972 -3.937010
vt 531.495972 3.937010
vt 492.126007 3.937010
vt 265.747986 -3.937010
vt 305.118011 -3.937010
vt 305.118011 3.937010
vt 265.747986 3.937010
vt -246.063004 -3.937010
vt -206.692993 -3.937010
vt -206.692993 3.937010
vt -246.063004 3.937010
vt -531.495972 -3.937010
vt -492.126007 -3.937010
vt -492.126007 3.937010
vt -531.495972 3.937010
vt -187.007996 -3.937010
vt -147.638000 -3.937010
vt -147.638000 3.937010
vt -187.007996 3.937010
vt 324.803009 -3.937010
vt 364.173004 -3.937010
vt 364.173004 3.937010
vt 324.803009 3.937010
vt 492.126007 -3.937010
vt 531.495972 -3.937010
vt 531.495972 3.937010
vt 492.126007 3.937010
vt 383.858002 -3.937010
vt 423.227997 -3.937010
vt 423.227997 3.937010
vt 383.858002 3.937010
vt 551.181030 -3.937010
vt 590.551025 -3.937010
vt 590.551025 3.937010
vt 551.181030 3.937010
vt 147.638000 -3.937010
vt 187.007996 -3.937010
vt 187.007996 3.937010
vt 147.638000 3.937010
vt -423.227997 -3.937010
vt -383.858002 -3.937010
vt -383.858002 3.937010
vt -423.227997 3.937010
vt 206.692993 -3.937010
vt 246.063004 -3.937010
vt 246.063004 3.937010
vt 206.692993 3.937010
vt 610.236023 -3.937010
vt 649.606018 -3.937010
vt 649.606018 3.937010
vt 610.236023 3.937010
vt 265.747986 -3.937010
vt 305.118011 -3.937010
vt 305.118011 3.937010
vt 265.747986 3.937010
vt 669.291016 -3.937010
vt 708.661011 -3.937010
vt 708.661011 3.937010
vt 669.291016 3.937010
vt 383.858002 -3.937010
vt 423.227997 -3.937010
vt 423.227997 3.937010
vt 383.858002 3.937010
vt 728.346008 -3.937010
vt 767.716980 -3.937010
vt 767.716980 3.937010
vt 728.346008 3.937010
vt 442.912994 -3.937010
vt 482.282990 -3.937010
vt 482.282990 3.937010
vt 442.912994 3.937010
vt 787.401978 -3.937010
vt 826.771973 -3.937010
vt 826.771973 3.937010
vt 787.401978 3.937010
vt 501.968994 -3.937010
vt 541.338989 -3.937010
vt 541.338989 3.937010
vt 501.968994 3.937010
vt -305.118011 -3.937010
vt -265.747986 -3.937010
vt -265.747986 3.937010
vt -305.118011 3.937010
vt 561.023987 -3.937010
vt 600.393982 -3.937010
vt 600.393982 3.937010
vt 561.023987 3.937010
vt 846.456970 -3.937010
vt 885.827026 -3.937010
vt 885.827026 3.937010
vt 846.456970 3.937010
vt 620.078979 -3.937010
vt 659.448975 -3.937010
vt 659.448975 3.937010
vt 620.078979 3.937010
vt -246.063004 -3.937010
vt -206.692993 -3.937010
vt -206.692993 3.937010
vt -246.063004 3.937010
vt 679.133972 -3.937010
vt 718.504028 -3.937010
vt 718.504028 3.937010
vt 679.133972 3.937010
vt -187.007996 -3.937010
vt -147.638000 -3.937010
vt -147.638000 3.937010
vt -187.007996 3.937010
vt 738.189026 -3.937010
vt 777.559021 -3.937010
vt 777.559021 3.937010
vt 738.189026 3.937010
vt -127.953003 -3.937010
vt -88.582703 -3.937010
vt -88.582703 3.937010
vt -127.953003 3.937010
vt 797.244019 -3.937010
vt 836.614014 -3.937010
vt 836.614014 3.937010
vt 797.244019 3.937010
vt 905.512024 -3.937010
vt 944.882019 -3.937010
vt 944.882019 3.937010
vt 905.512024 3.937010
vt 856.299011 -3.937010
vt 895.669006 -3.937010
vt 895.669006 3.937010
vt 856.299011 3.937010
vt -68.897598 -3.937010
vt -29.527599 -3.937010
vt -29.527599 3.937010
vt -68.897598 3.937010
vt 915.354004 -3.937010
vt 954.723999 -3.937010
vt 954.723999 3.937010
vt 915.354004 3.937010
vt -9.842520 -3.937010
vt 29.527599 -3.937010
vt 29.527599 3.937010
vt -9.842520 3.937010
vt -944.882019 -3.937010
vt -905.512024 -3.937010
vt -905.512024 3.937010
vt -944.882019 3.937010
vt 49.212601 -3.937010
vt 88.582703 -3.937010
vt 88.582703 3.937010
vt 49.212601 3.937010
vt 974.408997 -3.937010
vt 1013.780029 -3.937010
vt 1013.780029 3.937010
vt 974.408997 3.937010
vt 108.267998 -3.937010
vt 147.638000 -3.937010
vt 147.638000 3.937010
vt 108.267998 3.937010
vt -885.827026 -3.937010
vt -846.456970 -3.937010
vt -846.456970 3.937010
vt -885.827026 3.937010
vt 167.322998 -3.937010
vt 206.692993 -3.937010
vt 206.692993 3.937010
vt 167.322998 3.937010
vt 1033.459961 -3.937010
vt 1072.829956 -3.937010
vt 1072.829956 3.937010
vt 1033.459961 3.937010
vt 226.378006 -3.937010
vt 265.747986 -3.937010
vt 265.747986 3.937010
vt 226.378006 3.937010
vt -826.771973 -3.937010
vt -787.401978 -3.937010
vt -787.401978 3.937010
vt -826.771973 3.937010
vt 285.433014 -3.937010
vt 324.803009 -3.937010
vt 324.803009 3.937010
vt 285.433014 3.937010
vt -767.716980 -3.937010
vt -728.346008 -3.937010
vt -728.346008 3.937010
vt -767.716980 3.937010
vt 344.488007 -3.937010
vt 383.858002 -3.937010
vt 383.858002 3.937010
vt 344.488007 3.937010
vt 1092.520020 -3.937010
vt 1131.890015 -3.937010
vt 1131.890015 3.937010
vt 1092.520020 3.937010
vt 728.346008 -3.937010
vt 767.716980 -3.937010
vt 767.716980 3.937010
vt 728.346008 3.937010
vt -383.858002 -3.937010
vt -344.488007 -3.937010
vt -344.488007 3.937010
vt -383.858002 3.937010
vt 787.401978 -3.937010
vt 826.771973 -3.937010
vt 826.771973 3.937010
vt 787.401978 3.937010
vt -324.803009 -3.937010
vt -285.433014 -3.937010
vt -285.433014 3.937010
vt -324.803009 3.937010
vt 846.456970 -3.937010
vt 885.827026 -3.937010
vt 885.827026 3.937010
vt 846.456970 3.937010
vt -265.747986 -3.937010
vt -226.378006 -3.937010
vt -226.378006 3.937010
vt -265.747986 3.937010
vt -1131.890015 -3.937010
vt -1092.520020 -3.937010
vt -1092.520020 3.937010
vt -1131.890015 3.937010
vt -206.692993 -3.937010
vt -167.322998 -3.937010
vt -167.322998 3.937010
vt -206.692993 3.937010
vt 905.512024 -3.937010
vt 944.882019 -3.937010
vt 944.882019 3.937010
vt 905.512024 3.937010
vt 1092.520020 -3.937010
vt 1131.890015 -3.937010
vt 1131.890015 3.937010
vt 1092.520020 3.937010
vt 167.322998 -3.937010
vt 206.692993 -3.937010
vt 206.692993 3.937010
vt 167.322998 3.937010
vt 1151.569946 -3.937010
vt 1190.939941 -3.937010
vt 1190.939941 3.937010
vt 1151.569946 3.937010
vt 226.378006 -3.937010
vt 265.747986 -3.937010
vt 265.747986 3.937010
vt 226.378006 3.937010
vt 1210.630005 -3.937010
vt 1250.000000 -3.937010
vt 1250.000000 3.937010
vt 1210.630005 3.937010
vt 285.433014 -3.937010
vt 324.803009 -3.937010
vt 324.803009 3.937010
vt 285.433014 3.937010
vt -944.882019 -3.937010
vt -905.512024 -3.937010
vt -905.512024 3.937010
vt -944.882019 3.937010
vt 344.488007 -3.937010
vt 383.858002 -3.937010
vt 383.858002 3.937010
vt 344.488007 3.937010
vt -885.827026 -3.937010
vt -846.456970 -3.937010
vt -846.456970 3.937010
vt -885.827026 3.937010
vt -1250.000000 -3.937010
vt -1210.630005 -3.937010
vt -1210.630005 3.937010
vt -1250.000000 3.937010
vt -826.771973 -3.937010
vt -787.401978 -3.937010
vt -787.401978 3.937010
vt -826.771973 3.937010
vt 403.542999 -3.937010
vt 442.912994 -3.937010
vt 442.912994 3.937010
vt 403.542999 3.937010
vt -767.716980 -3.937010
vt -728.346008 -3.937010
vt -728.346008 3.937010
vt -767.716980 3.937010
vt -1190.939941 -3.937010
vt -1151.569946 -3.937010
vt -1151.569946 3.937010
vt -1190.939941 3.937010
vt -708.661011 -3.937010
vt -669.291016 -3.937010
vt -669.291016 3.937010
vt -708.661011 3.937010
vt 462.597992 -3.937010
vt 501.968994 -3.937010
vt 501.968994 3.937010
vt 462.597992 3.937010
vt -649.606018 -3.937010
vt -610.236023 -3.937010
vt -610.236023 3.937010
vt -649.606018 3.937010
vt -1131.890015 -3.937010
vt -1092.520020 -3.937010
vt -1092.520020 3.937010
vt -1131.890015 3.937010
vt -590.551025 -3.937010
vt -551.181030 -3.937010
vt -551.181030 3.937010
vt -590.551025 3.937010
vt 521.653992 -3.937010
vt 561.023987 -3.937010
vt 561.023987 3.937010
vt 521.653992 3.937010
vt -531.495972 -3.937010
vt -492.126007 -3.937010
vt -492.126007 3.937010
vt -531.495972 3.937010
vt -1072.829956 -3.937010
vt -1033.459961 -3.937010
vt -1033.459961 3.937010
vt -1072.829956 3.937010
vt -472.441010 -3.937010
vt -433.071014 -3.937010
vt -433.071014 3.937010
vt -472.441010 3.937010
vt -1013.780029 -3.937010
vt -974.408997 -3.937010
vt -974.408997 3.937010
vt -1013.780029 3.937010
vt -413.385986 -3.937010
vt -374.015991 -3.937010
vt -374.015991 3.937010
vt -413.385986 3.937010
vt -954.723999 -3.937010
vt -915.354004 -3.937010
vt -915.354004 3.937010
vt -954.723999 3.937010
vt -354.330994 -3.937010
vt -314.960999 -3.937010
vt -314.960999 3.937010
vt -354.330994 3.937010
vt 580.708984 -3.937010
vt 620.078979 -3.937010
vt 620.078979 3.937010
vt 580.708984 3.937010
vt -295.276001 -3.937010
vt -255.906006 -3.937010
vt -255.906006 3.937010
vt -295.276001 3.937010
vt -895.669006 -3.937010
vt -856.299011 -3.937010
vt -856.299011 3.937010
vt -895.669006 3.937010
vt -236.220001 -3.937010
vt -196.850006 -3.937010
vt -196.850006 3.937010
vt -236.220001 3.937010
vt 639.763977 -3.937010
vt 679.133972 -3.937010
vt 679.133972 3.937010
vt 639.763977 3.937010
vt 856.299011 -3.937010
vt 895.669006 -3.937010
vt 895.669006 3.937010
vt 856.299011 3.937010
vt 698.818970 -3.937010
vt 738.189026 -3.937010
vt 738.189026 3.937010
vt 698.818970 3.937010
vt -177.164993 -3.937010
vt -137.794998 -3.937010
vt -137.794998 3.937010
vt -177.164993 3.937010
vt -895.669006 -3.937010
vt -856.299011 -3.937010
vt -856.299011 3.937010
vt -895.669006 3.937010
vt -738.189026 -3.937010
vt -698.818970 -3.937010
vt -698.818970 3.937010
vt -738.189026 3.937010
vt -836.614014 -3.937010
vt -797.244019 -3.937010
vt -797.244019 3.937010
vt -836.614014 3.937010
vt -118.110001 -3.937010
vt -78.740196 -3.937010
vt -78.740196 3.937010
vt -118.110001 3.937010
vt -777.559021 -3.937010
vt -738.189026 -3.937010
vt -738.189026 3.937010
vt -777.559021 3.937010
vt -679.133972 -3.937010
vt -639.763977 -3.937010
vt -639.763977 3.937010
vt -679.133972 3.937010
vt 78.740196 -3.937010
vt 118.110001 -3.937010
vt 118.110001 3.937010
vt 78.740196 3.937010
vt 738.189026 -3.937010
vt 777.559021 -3.937010
vt 777.559021 3.937010
vt 738.189026 3.937010
vt 137.794998 -3.937010
vt 177.164993 -3.937010
vt 177.164993 3.937010
vt 137.794998 3.937010
vt -620.078979 -3.937010
vt -580.708984 -3.937010
vt -580.708984 3.937010
vt -620.078979 3.937010
vt -777.559021 -3.937010
vt -738.189026 -3.937010
vt -738.189026 3.937010
vt -777.559021 3.937010
vt -177.164993 -3.937010
vt -137.794998 -3.937010
vt -137.794998 3.937010
vt -177.164993 3.937010
vt -718.504028 -3.937010
vt -679.133972 -3.937010
vt -679.133972 3.937010
vt -718.504028 3.937010
vt -118.110001 -3.937010
vt -78.740196 -3.937010
vt -78.740196 3.937010
vt -118.110001 3.937010
vt -659.448975 -3.937010
vt -620.078979 -3.937010
vt -620.078979 3.937010
vt -659.448975 3.937010
vt -59.055099 -3.937010
vt -19.684999 -3.937010
vt -19.684999 3.937010
vt -59.055099 3.937010
vt -600.393982 -3.937010
vt -561.023987 -3.937010
vt -561.023987 3.937010
vt -600.393982 3.937010
vt -521.653992 -3.937010
vt -521.653992 3.937010
vt -541.338989 -3.937010
vt -501.968994 -3.937010
vt -501.968994 3.937010
vt -541.338989 3.937010
vt -462.597992 -3.937010
vt -462.597992 3.937010
vt 19.684999 -3.937010
vt 59.055099 -3.937010
vt 59.055099 3.937010
vt 19.684999 3.937010
vt -442.912994 -3.937010
vt -403.542999 -3.937010
vt -403.542999 3.937010
vt -442.912994 3.937010
vt -482.282990 -3.937010
vt -442.912994 -3.937010
vt -442.912994 3.937010
vt -482.282990 3.937010
vt -383.858002 -3.937010
vt -344.488007 -3.937010
vt -344.488007 3.937010
vt -383.858002 3.937010
vt -423.227997 -3.937010
vt -383.858002 -3.937010
vt -383.858002 3.937010
vt -423.227997 3.937010
vt -324.803009 -3.937010
vt -285.433014 -3.937010
vt -285.433014 3.937010
vt -324.803009 3.937010
vt -364.173004 -3.937010
vt -324.803009 -3.937010
vt -324.803009 3.937010
vt -364.173004 3.937010
vt -265.747986 -3.937010
vt -226.378006 -3.937010
vt -226.378006 3.937010
vt -265.747986 3.937010
vt -305.118011 -3.937010
vt -265.747986 -3.937010
vt -265.747986 3.937010
vt -305.118011 3.937010
vt -206.692993 -3.937010
vt -167.322998 -3.937010
vt -167.322998 3.937010
vt -206.692993 3.937010
vt 78.740196 -3.937010
vt 118.110001 -3.937010
vt 118.110001 3.937010
vt 78.740196 3.937010
vt -147.638000 -3.937010
vt -108.267998 -3.937010
vt -108.267998 3.937010
vt -147.638000 3.937010
vt -246.063004 -3.937010
vt -206.692993 -3.937010
vt -206.692993 3.937010
vt -246.063004 3.937010
vt -118.110001 -3.937010
vt -78.740196 -3.937010
vt -78.740196 3.937010
vt -118.110001 3.937010
vt 108.267998 -3.937010
vt 147.638000 -3.937010
vt 147.638000 3.937010
vt 108.267998 3.937010
vt -59.055099 -3.937010
vt -19.684999 -3.937010
vt -19.684999 3.937010
vt -59.055099 3.937010
vt -187.007996 -3.937010
vt -147.638000 -3.937010
vt -147.638000 3.937010
vt -187.007996 3.937010
vt -108.267998 -3.937010
vt -108.267998 3.937010
vt 19.684999 -3.937010
vt 59.055099 -3.937010
vt 59.055099 3.937010
vt 19.684999 3.937010
vt -88.582703 -3.937010
vt -49.212601 -3.937010
vt -49.212601 3.937010
vt -88.582703 3.937010
vt 78.740196 -3.937010
vt 118.110001 -3.937010
vt 118.110001 3.937010
vt 78.740196 3.937010
vt -29.527599 -3.937010
vt 9.842520 -3.937010
vt 9.842520 3.937010
vt -29.527599 3.937010
vt 137.794998 -3.937010
vt 177.164993 -3.937010
vt 177.164993 3.937010
vt 137.794998 3.937010
vt 29.527599 -3.937010
vt 68.897598 -3.937010
vt 68.897598 3.937010
vt 29.527599 3.937010
vt 196.850006 -3.937010
vt 236.220001 -3.937010
vt 236.220001 3.937010
vt 196.850006 3.937010
vt 147.638000 -3.937010
vt 187.007996 -3.937010
vt 187.007996 3.937010
vt 147.638000 3.937010
vt 255.906006 -3.937010
vt 295.276001 -3.937010
vt 295.276001 3.937010
vt 255.906006 3.937010
vt 88.582703 -3.937010
vt 127.953003 -3.937010
vt 127.953003 3.937010
vt 88.582703 3.937010
vt 314.960999 -3.937010
vt 354.330994 -3.937010
vt 354.330994 3.937010
vt 314.960999 3.937010
vt 147.638000 -3.937010
vt 187.007996 -3.937010
vt 187.007996 3.937010
vt 147.638000 3.937010
vt 374.015991 -3.937010
vt 413.385986 -3.937010
vt 413.385986 3.937010
vt 374.015991 3.937010
vt 206.692993 -3.937010
vt 246.063004 -3.937010
vt 246.063004 3.937010
vt 206.692993 3.937010
vt 433.071014 34.095501
vt 472.441010 34.095501
vt 492.126007 -0.000000
vt 531.495972 -0.000000
vt 551.181030 34.095501
vt 531.495972 68.191002
vt 492.126007 68.191002
vt 472.441010 102.286003
vt 492.126007 136.382004
vt 531.495972 136.382004
vt 551.181030 170.477005
vt 590.551025 170.477005
vt 610.236023 136.382004
vt 590.551025 102.286003
vt 610.236023 68.191002
vt 649.606018 68.191002
vt 669.291016 34.095501
vt 708.661011 34.095501
vt 728.346008 68.191002
vt 767.716980 68.191002
vt 787.401978 102.286003
vt 826.771973 102.286003
vt 846.456970 136.382004
vt 826.771973 170.477005
vt 846.456970 204.572998
vt 885.827026 204.572998
vt 905.512024 238.667999
vt 885.827026 272.764008
vt 905.512024 306.859009
vt 885.827026 340.954987
vt 905.512024 375.049988
vt 885.827026 409.145996
vt 905.512024 443.240997
vt 944.882019 443.240997
vt 964.567017 477.337006
vt 944.882019 511.432007
vt 964.567017 545.528015
vt 944.882019 579.622986
vt 905.512024 579.622986
vt 885.827026 613.718994
vt 905.512024 647.814026
vt 885.827026 681.909973
vt 846.456970 681.909973
vt 826.771973 716.005005
vt 846.456970 750.101013
vt 826.771973 784.195984
vt 787.401978 784.195984
vt 767.716980 818.291992
vt 728.346008 818.291992
vt 708.661011 852.387024
vt 728.346008 886.482971
vt 767.716980 886.482971
vt 787.401978 852.387024
vt 826.771973 852.387024
vt 846.456970 818.291992
vt 885.827026 818.291992
vt 905.512024 784.195984
vt 885.827026 750.101013
vt 905.512024 716.005005
vt 944.882019 716.005005
vt 964.567017 750.101013
vt 944.882019 784.195984
vt 964.567017 818.291992
vt 944.882019 852.387024
vt 964.567017 886.482971
vt 944.882019 920.578003
vt 905.512024 920.578003
vt 885.827026 954.674011
vt 846.456970 954.674011
vt 826.771973 920.578003
vt 787.401978 920.578003
vt 767.716980 954.674011
vt 728.346008 954.674011
vt 708.661011 920.578003
vt 669.291016 920.578003
vt 649.606018 954.674011
vt 610.236023 954.674011
vt 590.551025 920.578003
vt 551.181030 920.578003
vt 531.495972 954.674011
vt 492.126007 954.674011
vt 472.441010 920.578003
vt 433.071014 920.578003
vt 413.385986 886.482971
vt 374.015991 886.482971
vt 354.330994 852.387024
vt 314.960999 852.387024
vt 295.276001 886.482971
vt 255.906006 886.482971
vt 236.220001 852.387024
vt 196.850006 852.387024
vt 177.164993 886.482971
vt 196.850006 920.578003
vt 177.164993 954.674011
vt 137.794998 954.674011
vt 118.110001 920.578003
vt 137.794998 886.482971
vt 118.110001 852.387024
vt 78.740196 852.387024
vt 59.055099 818.291992
vt 78.740196 784.195984
vt 118.110001 784.195984
vt 137.794998 818.291992
vt 177.164993 818.291992
vt 196.850006 784.195984
vt 177.164993 750.101013
vt 137.794998 750.101013
vt 118.110001 716.005005
vt 78.740196 716.005005
vt 59.055099 681.909973
vt 19.684999 681.909973
vt 0.000000 647.814026
vt 19.684999 613.718994
vt 0.000000 579.622986
vt 19.684999 545.528015
vt 59.055099 545.528015
vt 78.740196 511.432007
vt 59.055099 477.337006
vt 78.740196 443.240997
vt 59.055099 409.145996
vt 78.740196 375.049988
vt 59.055099 340.954987
vt 78.740196 306.859009
vt 59.055099 272.764008
vt 78.740196 238.667999
vt 118.110001 238.667999
vt 137.794998 204.572998
vt 118.110001 170.477005
vt 78.740196 170.477005
vt 59.055099 204.572998
vt 19.684999 204.572998
vt 0.000000 170.477005
vt 19.684999 136.382004
vt 59.055099 136.382004
vt 78.740196 102.286003
vt 118.110001 102.286003
vt 137.794998 68.191002
vt 177.164993 68.191002
vt 196.850006 34.095501
vt 236.220001 34.095501
vt 255.906006 68.191002
vt 295.276001 68.191002
vt 314.960999 34.095501
vt 354.330994 34.095501
vt 374.015991 -0.000000
vt 413.385986 -0.000000
vn -0.0000 -1.0000 -0.0000
vn 0.0000 0.0000 1.0000
vn -0.8660 0.0000 0.5000
vn 0.8660 0.0000 0.5000
vn 0.8660 0.0000 -0.5000
vn 0.0000 0.0000 -1.0000
vn -0.8660 0.0000 -0.5000
vn -0.0000 1.0000 0.0000
usemtl FrontColor
s 1
f 21/61/9 22/62/9 23/63/9 24/64/9 25/65/9 26/66/9 27/67/9 28/68/9 29/69/9 30/70/9 31/71/9 32/72/9 33/73/9 34/74/9 35/75/9 36/76/9 37/77/9 38/78/9 39/79/9 40/80/9 41/81/9 42/82/9 43/83/9 44/84/9 45/85/9 46/86/9 47/87/9 48/88/9 49/89/9 50/90/9 51/91/9 52/92/9 53/93/9 54/94/9 55/95/9 56/96/9 57/97/9 58/98/9 59/99/9 60/100/9 61/101/9 62/102/9 63/103/9 64/104/9 65/105/9 66/106/9 67/107/9 68/108/9 69/109/9 70/110/9 71/111/9 72/112/9 73/113/9 74/114/9 75/115/9 76/116/9 77/117/9 78/118/9 79/119/9 80/120/9 81/121/9 82/122/9 83/123/9 84/124/9 85/125/9 86/126/9 87/127/9 88/128/9 89/129/9 90/130/9 91/131/9 92/132/9 93/133/9 94/134/9 95/135/9 96/136/9 97/137/9 98/138/9 99/139/9 100/140/9 101/141/9 102/142/9 103/143/9 104/144/9 105/145/9 106/146/9 107/147/9 108/148/9 109/149/9 110/150/9 111/151/9 112/152/9 113/153/9 114/154/9 115/155/9 116/156/9 117/157/9 118/158/9 119/159/9 120/160/9 121/161/9 122/162/9 123/163/9 124/164/9 125/165/9 126/166/9 127/167/9 128/168/9 129/169/9 130/170/9 131/171/9 132/172/9 133/173/9 134/174/9 135/175/9 136/176/9 137/177/9 138/178/9 139/179/9 140/180/9 141/181/9 142/182/9 143/183/9 144/184/9 145/185/9 146/186/9 147/187/9 148/188/9 149/189/9 150/190/9 151/191/9 152/192/9 153/193/9 154/194/9 155/195/9 156/196/9 157/197/9 158/198/9 159/199/9 160/200/9 161/201/9 162/202/9 163/203/9 164/204/9 165/205/9 166/206/9
f 22/207/10 21/208/10 167/209/10 168/210/10
f 21/211/11 166/212/11 169/213/11 167/214/11
f 166/215/10 165/216/10 170/217/10 169/218/10
f 165/219/12 164/220/12 171/221/12 170/222/12
f 164/223/13 163/224/13 172/225/13 171/226/13
f 163/227/14 162/228/14 173/229/14 172/230/14
f 162/231/13 161/232/13 174/233/13 173/234/13
f 161/235/12 160/236/12 175/237/12 174/238/12
f 160/239/10 159/240/10 176/241/10 175/242/10
f 159/243/12 158/244/12 177/245/12 176/246/12
f 158/247/10 157/248/10 178/249/10 177/250/10
f 157/251/11 156/252/11 179/253/11 178/254/11
f 156/255/15 155/256/15 180/257/15 179/258/15
f 155/259/11 154/260/11 181/261/11 180/262/11
f 154/263/10 153/264/10 182/265/10 181/266/10
f 153/267/11 152/268/11 183/269/11 182/270/11
f 152/271/10 151/272/10 184/273/10 183/274/10
f 151/275/12 150/276/12 185/277/12 184/278/12
f 150/279/10 149/280/10 186/281/10 185/282/10
f 149/283/12 148/284/12 187/285/12 186/286/12
f 148/287/10 147/288/10 188/289/10 187/290/10
f 147/291/12 146/292/12 189/293/12 188/294/12
f 146/295/13 145/296/13 190/297/13 189/298/13
f 145/299/12 144/300/12 191/301/12 190/302/12
f 144/303/10 143/304/10 192/305/10 191/306/10
f 143/307/12 142/308/12 193/309/12 192/310/12
f 142/311/13 141/312/13 194/313/13 193/314/13
f 141/315/12 140/316/12 195/317/12 194/318/12
f 140/319/13 139/320/13 196/321/13 195/322/13
f 139/323/12 138/324/12 197/325/12 196/326/12
f 138/327/13 137/328/13 198/329/13 197/330/13
f 137/331/12 136/332/12 199/333/12 198/334/12
f 136/335/10 135/336/10 200/337/10 199/338/10
f 135/339/12 134/340/12 201/341/12 200/342/12
f 134/343/13 133/344/13 202/345/13 201/346/13
f 133/347/12 132/348/12 203/349/12 202/350/12
f 132/351/13 131/352/13 204/353/13 203/354/13
f 131/355/14 130/356/14 205/357/14 204/358/14
f 130/359/13 129/360/13 206/361/13 205/362/13
f 129/363/12 128/364/12 207/365/12 206/366/12
f 128/367/13 127/368/13 208/369/13 207/370/13
f 127/371/14 126/372/14 209/373/14 208/374/14
f 126/375/13 125/376/13 210/377/13 209/378/13
f 125/379/12 124/380/12 211/381/12 210/382/12
f 124/383/13 123/384/13 212/385/13 211/386/13
f 123/387/14 122/388/14 213/389/14 212/390/14
f 122/391/13 121/392/13 214/393/13 213/394/13
f 121/395/14 120/396/14 215/397/14 214/398/14
f 120/399/13 119/400/13 216/401/13 215/402/13
f 119/403/12 118/404/12 217/405/12 216/406/12
f 118/407/10 117/408/10 218/409/10 217/410/10
f 117/411/11 116/412/11 219/413/11 218/414/11
f 116/415/10 115/416/10 220/417/10 219/418/10
f 115/419/11 114/420/11 221/421/11 220/422/11
f 114/423/10 113/424/10 222/425/10 221/426/10
f 113/427/11 112/428/11 223/429/11 222/430/11
f 112/431/15 111/432/15 224/433/15 223/434/15
f 111/435/11 110/436/11 225/437/11 224/438/11
f 110/439/10 109/440/10 226/441/10 225/442/10
f 109/443/12 108/444/12 227/445/12 226/446/12
f 108/447/13 107/448/13 228/449/13 227/450/13
f 107/451/12 106/452/12 229/453/12 228/454/12
f 106/455/13 105/456/13 230/457/13 229/458/13
f 105/459/12 104/460/12 231/461/12 230/462/12
f 104/463/13 103/464/13 232/465/13 231/466/13
f 103/467/14 102/468/14 233/469/14 232/470/14
f 102/471/13 101/472/13 234/473/13 233/474/13
f 101/475/14 100/476/14 235/477/14 234/478/14
f 100/479/15 99/480/15 236/481/15 235/482/15
f 99/483/14 98/484/14 237/485/14 236/486/14
f 98/487/13 97/488/13 238/489/13 237/490/13
f 97/491/14 96/492/14 239/493/14 238/494/14
f 96/495/15 95/496/15 240/497/15 239/498/15
f 95/499/14 94/500/14 241/501/14 240/502/14
f 94/503/13 93/504/13 242/505/13 241/506/13
f 93/507/14 92/508/14 243/509/14 242/510/14
f 92/511/15 91/512/15 244/513/15 243/514/15
f 91/515/14 90/516/14 245/517/14 244/518/14
f 90/519/13 89/520/13 246/521/13 245/522/13
f 89/523/14 88/524/14 247/525/14 246/526/14
f 88/527/15 87/528/15 248/529/15 247/530/15
f 87/531/14 86/532/14 249/533/14 248/534/14
f 86/535/15 85/536/15 250/537/15 249/538/15
f 85/539/14 84/540/14 251/541/14 250/542/14
f 84/543/15 83/544/15 252/545/15 251/546/15
f 83/547/14 82/548/14 253/549/14 252/550/14
f 82/551/13 81/552/13 254/553/13 253/554/13
f 81/555/14 80/556/14 255/557/14 254/558/14
f 80/559/15 79/560/15 256/561/15 255/562/15
f 79/563/14 78/564/14 257/565/14 256/566/14
f 78/567/13 77/568/13 258/569/13 257/570/13
f 77/571/12 76/572/12 259/573/12 258/574/12
f 76/575/13 75/576/13 260/577/13 259/578/13
f 75/579/14 74/580/14 261/581/14 260/582/14
f 74/583/15 73/584/15 262/585/15 261/586/15
f 73/587/11 72/588/11 263/589/11 262/590/11
f 72/591/15 71/592/15 264/593/15 263/594/15
f 71/595/14 70/596/14 265/597/14 264/598/14
f 70/599/15 69/600/15 266/601/15 265/602/15
f 69/603/11 68/604/11 267/605/11 266/606/11
f 68/607/10 67/608/10 268/609/10 267/610/10
f 67/611/12 66/612/12 269/613/12 268/614/12
f 66/615/10 65/616/10 270/617/10 269/618/10
f 65/619/11 64/620/11 271/621/11 270/622/11
f 64/623/15 63/624/15 272/625/15 271/626/15
f 63/627/14 62/628/14 273/629/14 272/630/14
f 62/631/15 61/632/15 274/633/15 273/634/15
f 61/635/14 60/636/14 275/637/14 274/638/14
f 60/639/15 59/640/15 276/641/15 275/642/15
f 59/643/14 58/644/14 277/645/14 276/646/14
f 58/647/15 57/648/15 278/649/15 277/650/15
f 57/648/11 56/651/11 279/652/11 278/649/11
f 56/653/15 55/654/15 280/655/15 279/656/15
f 55/654/11 54/657/11 281/658/11 280/655/11
f 54/659/10 53/660/10 282/661/10 281/662/10
f 53/663/11 52/664/11 283/665/11 282/666/11
f 52/667/15 51/668/15 284/669/15 283/670/15
f 51/671/11 50/672/11 285/673/11 284/674/11
f 50/675/15 49/676/15 286/677/15 285/678/15
f 49/679/11 48/680/11 287/681/11 286/682/11
f 48/683/15 47/684/15 288/685/15 287/686/15
f 47/687/11 46/688/11 289/689/11 288/690/11
f 46/691/15 45/692/15 290/693/15 289/694/15
f 45/695/11 44/696/11 291/697/11 290/698/11
f 44/699/10 43/700/10 292/701/10 291/702/10
f 43/703/11 42/704/11 293/705/11 292/706/11
f 42/707/15 41/708/15 294/709/15 293/710/15
f 41/711/14 40/712/14 295/713/14 294/714/14
f 40/715/13 39/716/13 296/717/13 295/718/13
f 39/719/14 38/720/14 297/721/14 296/722/14
f 38/723/15 37/724/15 298/725/15 297/726/15
f 37/724/11 36/727/11 299/728/11 298/725/11
f 36/729/10 35/730/10 300/731/10 299/732/10
f 35/733/11 34/734/11 301/735/11 300/736/11
f 34/737/10 33/738/10 302/739/10 301/740/10
f 33/741/11 32/742/11 303/743/11 302/744/11
f 32/745/10 31/746/10 304/747/10 303/748/10
f 31/749/11 30/750/11 305/751/11 304/752/11
f 30/753/10 29/754/10 306/755/10 305/756/10
f 29/757/12 28/758/12 307/759/12 306/760/12
f 28/761/10 27/762/10 308/763/10 307/764/10
f 27/765/11 26/766/11 309/767/11 308/768/11
f 26/769/10 25/770/10 310/771/10 309/772/10
f 25/773/11 24/774/11 311/775/11 310/776/11
f 24/777/10 23/778/10 312/779/10 311/780/10
f 23/781/12 22/782/12 168/783/12 312/784/12
f 168/785/16 167/786/16 169/787/16 170/788/16 171/789/16 172/790/16 173/791/16 174/792/16 175/793/16 176/794/16 177/795/16 178/796/16 179/797/16 180/798/16 181/799/16 182/800/16 183/801/16 184/802/16 185/803/16 186/804/16 187/805/16 188/806/16 189/807/16 190/808/16 191/809/16 192/810/16 193/811/16 194/812/16 195/813/16 196/814/16 197/815/16 198/816/16 199/817/16 200/818/16 201/819/16 202/820/16 203/821/16 204/822/16 205/823/16 206/824/16 207/825/16 208/826/16 209/827/16 210/828/16 211/829/16 212/830/16 213/831/16 214/832/16 215/833/16 216/834/16 217/835/16 218/836/16 219/837/16 220/838/16 221/839/16 222/840/16 223/841/16 224/842/16 225/843/16 226/844/16 227/845/16 228/846/16 229/847/16 230/848/16 231/849/16 232/850/16 233/851/16 234/852/16 235/853/16 236/854/16 237/855/16 238/856/16 239/857/16 240/858/16 241/859/16 242/860/16 243/861/16 244/862/16 245/863/16 246/864/16 247/865/16 248/866/16 249/867/16 250/868/16 251/869/16 252/870/16 253/871/16 254/872/16 255/873/16 256/874/16 257/875/16 258/876/16 259/877/16 260/878/16 261/879/16 262/880/16 263/881/16 264/882/16 265/883/16 266/884/16 267/885/16 268/886/16 269/887/16 270/888/16 271/889/16 272/890/16 273/891/16 274/892/16 275/893/16 276/894/16 277/895/16 278/896/16 279/897/16 280/898/16 281/899/16 282/900/16 283/901/16 284/902/16 285/903/16 286/904/16 287/905/16 288/906/16 289/907/16 290/908/16 291/909/16 292/910/16 293/911/16 294/912/16 295/913/16 296/914/16 297/915/16 298/916/16 299/917/16 300/918/16 301/919/16 302/920/16 303/921/16 304/922/16 305/923/16 306/924/16 307/925/16 308/926/16 309/927/16 310/928/16 311/929/16 312/930/16
o Mesh1_Group1_Model
v -11.500000 -0.199998 -11.258300
v -11.000000 -0.199998 -10.392300
v -11.500000 -0.199998 -9.526280
v -12.500000 -0.199998 -9.526280
v -13.000000 -0.199998 -10.392300
v -12.500000 -0.199998 -11.258300
v -11.500000 0.000002 -11.258300
v -11.000000 0.000002 -10.392300
v -12.500000 0.000002 -11.258300
v -13.000000 0.000002 -10.392300
v -12.500000 0.000002 -9.526280
v -11.500000 0.000002 -9.526280
vt -59.055099 954.674011
vt -78.740196 920.578003
vt -59.055099 886.482971
vt -19.684999 886.482971
vt -0.000000 920.578003
vt -19.684999 954.674011
vt 757.874023 -3.937010
vt 797.244019 -3.937010
vt 797.244019 3.937010
vt 757.874023 3.937010
vt -59.055099 -3.937010
vt -19.684999 -3.937010
vt -19.684999 3.937010
vt -59.055099 3.937010
vt -836.614014 -3.937010
vt -797.244019 -3.937010
vt -797.244019 3.937010
vt -836.614014 3.937010
vt -757.874023 -3.937010
vt -757.874023 3.937010
vt 19.684999 -3.937010
vt 59.055099 -3.937010
vt 59.055099 3.937010
vt 19.684999 3.937010
vt 797.244019 -3.937010
vt 836.614014 -3.937010
vt 836.614014 3.937010
vt 797.244019 3.937010
vt 78.740196 920.578003
vt 59.055099 954.674011
vt 19.684999 954.674011
vt 0.000000 920.578003
vt 19.684999 886.482971
vt 59.055099 886.482971
vn 0.0000 -1.0000 -0.0000
vn 0.8660 0.0000 -0.5000
vn 0.0000 0.0000 -1.0000
vn -0.8660 0.0000 -0.5000
vn -0.8660 0.0000 0.5000
vn 0.0000 0.0000 1.0000
vn 0.8660 0.0000 0.5000
vn 0.0000 1.0000 0.0000
usemtl FrontColor
s 1
f 313/931/17 314/932/17 315/933/17 316/934/17 317/935/17 318/936/17
f 314/937/18 313/938/18 319/939/18 320/940/18
f 313/941/19 318/942/19 321/943/19 319/944/19
f 318/945/20 317/946/20 322/947/20 321/948/20
f 317/946/21 316/949/21 323/950/21 322/947/21
f 316/951/22 315/952/22 324/953/22 323/954/22
f 315/955/23 314/956/23 320/957/23 324/958/23
f 320/959/24 319/960/24 321/961/24 322/962/24 323/963/24 324/964/24
